^D:\USERS\MONST\DESKTOP\3DFIER\3DFIER-C++\3DFIER\X64\DEBUG\CAPTURE.OBJ|D:\USERS\MONST\DESKTOP\3DFIER\3DFIER-C++\3DFIER\X64\DEBUG\MAIN.OBJ|D:\USERS\MONST\DESKTOP\3DFIER\3DFIER-C++\3DFIER\X64\DEBUG\PRFEATURE.OBJ
C:\PROGRAM FILES (X86)\WINDOWS KITS\10\LIB\10.0.17763.0\UM\X64\KERNEL32.LIB
C:\PROGRAM FILES (X86)\WINDOWS KITS\10\LIB\10.0.17763.0\UM\X64\USER32.LIB
C:\PROGRAM FILES (X86)\WINDOWS KITS\10\LIB\10.0.17763.0\UM\X64\GDI32.LIB
C:\PROGRAM FILES (X86)\WINDOWS KITS\10\LIB\10.0.17763.0\UM\X64\WINSPOOL.LIB
C:\PROGRAM FILES (X86)\WINDOWS KITS\10\LIB\10.0.17763.0\UM\X64\COMDLG32.LIB
C:\PROGRAM FILES (X86)\WINDOWS KITS\10\LIB\10.0.17763.0\UM\X64\ADVAPI32.LIB
C:\PROGRAM FILES (X86)\WINDOWS KITS\10\LIB\10.0.17763.0\UM\X64\SHELL32.LIB
C:\PROGRAM FILES (X86)\WINDOWS KITS\10\LIB\10.0.17763.0\UM\X64\OLE32.LIB
C:\PROGRAM FILES (X86)\WINDOWS KITS\10\LIB\10.0.17763.0\UM\X64\OLEAUT32.LIB
C:\PROGRAM FILES (X86)\WINDOWS KITS\10\LIB\10.0.17763.0\UM\X64\UUID.LIB
C:\PROGRAM FILES (X86)\WINDOWS KITS\10\LIB\10.0.17763.0\UM\X64\ODBC32.LIB
C:\PROGRAM FILES (X86)\WINDOWS KITS\10\LIB\10.0.17763.0\UM\X64\ODBCCP32.LIB
D:\CODE_LIBRARIES\VCPKG\INSTALLED\X64-WINDOWS\DEBUG\LIB\BOOST_ATOMIC-VC140-MT-GD.LIB
D:\CODE_LIBRARIES\VCPKG\INSTALLED\X64-WINDOWS\DEBUG\LIB\BOOST_CHRONO-VC140-MT-GD.LIB
D:\CODE_LIBRARIES\VCPKG\INSTALLED\X64-WINDOWS\DEBUG\LIB\BOOST_CONTAINER-VC140-MT-GD.LIB
D:\CODE_LIBRARIES\VCPKG\INSTALLED\X64-WINDOWS\DEBUG\LIB\BOOST_CONTEXT-VC140-MT-GD.LIB
D:\CODE_LIBRARIES\VCPKG\INSTALLED\X64-WINDOWS\DEBUG\LIB\BOOST_CONTRACT-VC140-MT-GD.LIB
D:\CODE_LIBRARIES\VCPKG\INSTALLED\X64-WINDOWS\DEBUG\LIB\BOOST_COROUTINE-VC140-MT-GD.LIB
D:\CODE_LIBRARIES\VCPKG\INSTALLED\X64-WINDOWS\DEBUG\LIB\BOOST_DATE_TIME-VC140-MT-GD.LIB
D:\CODE_LIBRARIES\VCPKG\INSTALLED\X64-WINDOWS\DEBUG\LIB\BOOST_EXCEPTION-VC140-MT-GD.LIB
D:\CODE_LIBRARIES\VCPKG\INSTALLED\X64-WINDOWS\DEBUG\LIB\BOOST_FIBER-VC140-MT-GD.LIB
D:\CODE_LIBRARIES\VCPKG\INSTALLED\X64-WINDOWS\DEBUG\LIB\BOOST_FILESYSTEM-VC140-MT-GD.LIB
D:\CODE_LIBRARIES\VCPKG\INSTALLED\X64-WINDOWS\DEBUG\LIB\BOOST_GRAPH-VC140-MT-GD.LIB
D:\CODE_LIBRARIES\VCPKG\INSTALLED\X64-WINDOWS\DEBUG\LIB\BOOST_IOSTREAMS-VC140-MT-GD.LIB
D:\CODE_LIBRARIES\VCPKG\INSTALLED\X64-WINDOWS\DEBUG\LIB\BOOST_LOCALE-VC140-MT-GD.LIB
D:\CODE_LIBRARIES\VCPKG\INSTALLED\X64-WINDOWS\DEBUG\LIB\BOOST_LOG-VC140-MT-GD.LIB
D:\CODE_LIBRARIES\VCPKG\INSTALLED\X64-WINDOWS\DEBUG\LIB\BOOST_LOG_SETUP-VC140-MT-GD.LIB
D:\CODE_LIBRARIES\VCPKG\INSTALLED\X64-WINDOWS\DEBUG\LIB\BOOST_MATH_C99-VC140-MT-GD.LIB
D:\CODE_LIBRARIES\VCPKG\INSTALLED\X64-WINDOWS\DEBUG\LIB\BOOST_MATH_C99F-VC140-MT-GD.LIB
D:\CODE_LIBRARIES\VCPKG\INSTALLED\X64-WINDOWS\DEBUG\LIB\BOOST_MATH_C99L-VC140-MT-GD.LIB
D:\CODE_LIBRARIES\VCPKG\INSTALLED\X64-WINDOWS\DEBUG\LIB\BOOST_MATH_TR1-VC140-MT-GD.LIB
D:\CODE_LIBRARIES\VCPKG\INSTALLED\X64-WINDOWS\DEBUG\LIB\BOOST_MATH_TR1F-VC140-MT-GD.LIB
D:\CODE_LIBRARIES\VCPKG\INSTALLED\X64-WINDOWS\DEBUG\LIB\BOOST_MATH_TR1L-VC140-MT-GD.LIB
D:\CODE_LIBRARIES\VCPKG\INSTALLED\X64-WINDOWS\DEBUG\LIB\BOOST_NUMPY37-VC140-MT-GD.LIB
D:\CODE_LIBRARIES\VCPKG\INSTALLED\X64-WINDOWS\DEBUG\LIB\BOOST_PROGRAM_OPTIONS-VC140-MT-GD.LIB
D:\CODE_LIBRARIES\VCPKG\INSTALLED\X64-WINDOWS\DEBUG\LIB\BOOST_PYTHON37-VC140-MT-GD.LIB
D:\CODE_LIBRARIES\VCPKG\INSTALLED\X64-WINDOWS\DEBUG\LIB\BOOST_RANDOM-VC140-MT-GD.LIB
D:\CODE_LIBRARIES\VCPKG\INSTALLED\X64-WINDOWS\DEBUG\LIB\BOOST_REGEX-VC140-MT-GD.LIB
D:\CODE_LIBRARIES\VCPKG\INSTALLED\X64-WINDOWS\DEBUG\LIB\BOOST_SERIALIZATION-VC140-MT-GD.LIB
D:\CODE_LIBRARIES\VCPKG\INSTALLED\X64-WINDOWS\DEBUG\LIB\BOOST_STACKTRACE_NOOP-VC140-MT-GD.LIB
D:\CODE_LIBRARIES\VCPKG\INSTALLED\X64-WINDOWS\DEBUG\LIB\BOOST_STACKTRACE_WINDBG-VC140-MT-GD.LIB
D:\CODE_LIBRARIES\VCPKG\INSTALLED\X64-WINDOWS\DEBUG\LIB\BOOST_STACKTRACE_WINDBG_CACHED-VC140-MT-GD.LIB
D:\CODE_LIBRARIES\VCPKG\INSTALLED\X64-WINDOWS\DEBUG\LIB\BOOST_SYSTEM-VC140-MT-GD.LIB
D:\CODE_LIBRARIES\VCPKG\INSTALLED\X64-WINDOWS\DEBUG\LIB\BOOST_THREAD-VC140-MT-GD.LIB
D:\CODE_LIBRARIES\VCPKG\INSTALLED\X64-WINDOWS\DEBUG\LIB\BOOST_TIMER-VC140-MT-GD.LIB
D:\CODE_LIBRARIES\VCPKG\INSTALLED\X64-WINDOWS\DEBUG\LIB\BOOST_TYPE_ERASURE-VC140-MT-GD.LIB
D:\CODE_LIBRARIES\VCPKG\INSTALLED\X64-WINDOWS\DEBUG\LIB\BOOST_UNIT_TEST_FRAMEWORK-VC140-MT-GD.LIB
D:\CODE_LIBRARIES\VCPKG\INSTALLED\X64-WINDOWS\DEBUG\LIB\BOOST_WAVE-VC140-MT-GD.LIB
D:\CODE_LIBRARIES\VCPKG\INSTALLED\X64-WINDOWS\DEBUG\LIB\BOOST_WSERIALIZATION-VC140-MT-GD.LIB
D:\CODE_LIBRARIES\VCPKG\INSTALLED\X64-WINDOWS\DEBUG\LIB\BZ2D.LIB
D:\CODE_LIBRARIES\VCPKG\INSTALLED\X64-WINDOWS\DEBUG\LIB\GLU32.LIB
D:\CODE_LIBRARIES\VCPKG\INSTALLED\X64-WINDOWS\DEBUG\LIB\JPEGD.LIB
D:\CODE_LIBRARIES\VCPKG\INSTALLED\X64-WINDOWS\DEBUG\LIB\LIBEAY32.LIB
D:\CODE_LIBRARIES\VCPKG\INSTALLED\X64-WINDOWS\DEBUG\LIB\LIBPNG16D.LIB
D:\CODE_LIBRARIES\VCPKG\INSTALLED\X64-WINDOWS\DEBUG\LIB\LIBPROTOBUF-LITED.LIB
D:\CODE_LIBRARIES\VCPKG\INSTALLED\X64-WINDOWS\DEBUG\LIB\LIBPROTOBUFD.LIB
D:\CODE_LIBRARIES\VCPKG\INSTALLED\X64-WINDOWS\DEBUG\LIB\LIBPROTOCD.LIB
D:\CODE_LIBRARIES\VCPKG\INSTALLED\X64-WINDOWS\DEBUG\LIB\LZMAD.LIB
D:\CODE_LIBRARIES\VCPKG\INSTALLED\X64-WINDOWS\DEBUG\LIB\OPENCV_CALIB3DD.LIB
D:\CODE_LIBRARIES\VCPKG\INSTALLED\X64-WINDOWS\DEBUG\LIB\OPENCV_CORED.LIB
D:\CODE_LIBRARIES\VCPKG\INSTALLED\X64-WINDOWS\DEBUG\LIB\OPENCV_DNND.LIB
D:\CODE_LIBRARIES\VCPKG\INSTALLED\X64-WINDOWS\DEBUG\LIB\OPENCV_FEATURES2DD.LIB
D:\CODE_LIBRARIES\VCPKG\INSTALLED\X64-WINDOWS\DEBUG\LIB\OPENCV_FLANND.LIB
D:\CODE_LIBRARIES\VCPKG\INSTALLED\X64-WINDOWS\DEBUG\LIB\OPENCV_HIGHGUID.LIB
D:\CODE_LIBRARIES\VCPKG\INSTALLED\X64-WINDOWS\DEBUG\LIB\OPENCV_IMGCODECSD.LIB
D:\CODE_LIBRARIES\VCPKG\INSTALLED\X64-WINDOWS\DEBUG\LIB\OPENCV_IMGPROCD.LIB
D:\CODE_LIBRARIES\VCPKG\INSTALLED\X64-WINDOWS\DEBUG\LIB\OPENCV_MLD.LIB
D:\CODE_LIBRARIES\VCPKG\INSTALLED\X64-WINDOWS\DEBUG\LIB\OPENCV_OBJDETECTD.LIB
D:\CODE_LIBRARIES\VCPKG\INSTALLED\X64-WINDOWS\DEBUG\LIB\OPENCV_PHOTOD.LIB
D:\CODE_LIBRARIES\VCPKG\INSTALLED\X64-WINDOWS\DEBUG\LIB\OPENCV_STITCHINGD.LIB
D:\CODE_LIBRARIES\VCPKG\INSTALLED\X64-WINDOWS\DEBUG\LIB\OPENCV_VIDEOD.LIB
D:\CODE_LIBRARIES\VCPKG\INSTALLED\X64-WINDOWS\DEBUG\LIB\OPENCV_VIDEOIOD.LIB
D:\CODE_LIBRARIES\VCPKG\INSTALLED\X64-WINDOWS\DEBUG\LIB\OPENGL32.LIB
D:\CODE_LIBRARIES\VCPKG\INSTALLED\X64-WINDOWS\DEBUG\LIB\PYTHON37_D.LIB
D:\CODE_LIBRARIES\VCPKG\INSTALLED\X64-WINDOWS\DEBUG\LIB\SSLEAY32.LIB
D:\CODE_LIBRARIES\VCPKG\INSTALLED\X64-WINDOWS\DEBUG\LIB\TIFFD.LIB
D:\CODE_LIBRARIES\VCPKG\INSTALLED\X64-WINDOWS\DEBUG\LIB\TIFFXXD.LIB
D:\CODE_LIBRARIES\VCPKG\INSTALLED\X64-WINDOWS\DEBUG\LIB\TURBOJPEGD.LIB
D:\CODE_LIBRARIES\VCPKG\INSTALLED\X64-WINDOWS\DEBUG\LIB\WEBPD.LIB
D:\CODE_LIBRARIES\VCPKG\INSTALLED\X64-WINDOWS\DEBUG\LIB\WEBPDECODERD.LIB
D:\CODE_LIBRARIES\VCPKG\INSTALLED\X64-WINDOWS\DEBUG\LIB\WEBPDEMUXD.LIB
D:\CODE_LIBRARIES\VCPKG\INSTALLED\X64-WINDOWS\DEBUG\LIB\ZLIBD.LIB
D:\CODE_LIBRARIES\VCPKG\INSTALLED\X64-WINDOWS\DEBUG\LIB\ZSTDD.LIB
D:\USERS\MONST\DESKTOP\3DFIER\3DFIER-C++\3DFIER\X64\DEBUG\MAIN.OBJ
D:\USERS\MONST\DESKTOP\3DFIER\3DFIER-C++\3DFIER\X64\DEBUG\CAPTURE.OBJ
D:\USERS\MONST\DESKTOP\3DFIER\3DFIER-C++\3DFIER\X64\DEBUG\PRFEATURE.OBJ
C:\WINDOWS\SYSTEM32\TZRES.DLL
C:\WINDOWS\GLOBALIZATION\SORTING\SORTDEFAULT.NLS
D:\PROGRAM FILES (X86)\MICROSOFT VISUAL STUDIO\2017\COMMUNITY\VC\TOOLS\MSVC\14.16.27023\LIB\X64\MSVCPRTD.LIB
D:\PROGRAM FILES (X86)\MICROSOFT VISUAL STUDIO\2017\COMMUNITY\VC\TOOLS\MSVC\14.16.27023\LIB\X64\MSVCRTD.LIB
D:\PROGRAM FILES (X86)\MICROSOFT VISUAL STUDIO\2017\COMMUNITY\VC\TOOLS\MSVC\14.16.27023\LIB\X64\OLDNAMES.LIB
D:\PROGRAM FILES (X86)\MICROSOFT VISUAL STUDIO\2017\COMMUNITY\VC\TOOLS\MSVC\14.16.27023\LIB\X64\VCOMPD.LIB
D:\PROGRAM FILES (X86)\MICROSOFT VISUAL STUDIO\2017\COMMUNITY\VC\TOOLS\MSVC\14.16.27023\LIB\X64\VCRUNTIMED.LIB
C:\PROGRAM FILES (X86)\WINDOWS KITS\10\LIB\10.0.17763.0\UCRT\X64\UCRTD.LIB
D:\PROGRAM FILES (X86)\MICROSOFT VISUAL STUDIO\2017\COMMUNITY\VC\TOOLS\MSVC\14.16.27023\BIN\HOSTX86\X64\LINK.EXE
C:\PROGRAM FILES (X86)\WINDOWS KITS\10\BIN\10.0.17763.0\X86\RC.EXE
D:\PROGRAM FILES (X86)\MICROSOFT VISUAL STUDIO\2017\COMMUNITY\VC\TOOLS\MSVC\14.16.27023\BIN\HOSTX86\X86\CVTRES.EXE
D:\PROGRAM FILES (X86)\MICROSOFT VISUAL STUDIO\2017\COMMUNITY\VC\TOOLS\MSVC\14.16.27023\BIN\HOSTX86\X86\MSPDBSRV.EXE
