^D:\USERS\MONST\DESKTOP\3DFIER\3DFIER-C++\3DFIER\X64\DEBUG\CAPTURE.OBJ|D:\USERS\MONST\DESKTOP\3DFIER\3DFIER-C++\3DFIER\X64\DEBUG\MAIN.OBJ|D:\USERS\MONST\DESKTOP\3DFIER\3DFIER-C++\3DFIER\X64\DEBUG\PRFEATURE.OBJ
D:\USERS\MONST\DESKTOP\3DFIER\3DFIER-C++\X64\DEBUG\3DFIER.EXE
D:\USERS\MONST\DESKTOP\3DFIER\3DFIER-C++\X64\DEBUG\3DFIER.ILK
D:\USERS\MONST\DESKTOP\3DFIER\3DFIER-C++\X64\DEBUG\3DFIER.PDB
